{
    "schema_version": "3.0.0",
    "packages": [
        {
            "name": "AnacondaFileDoc",
            "details": "https://bitbucket.org/meowcoder/sublime-anaconda-file-doc",
            "releases": [
                {
                    "sublime_text": ">=3000",
                    "tags": true
                }
            ]
        }
    ]
}
